%YAML 1.1
%TAG !u! tag:unity3d.com,2011:
--- !u!78 &1
TagManager:
  serializedVersion: 2
  tags:
  - Platform
  - Ground
  - MovingPlatform
  layers:
  - Default
  - TransparentFX
  - Ignore Raycast
  - 
  - Water
  - UI
  - 
  - 
  - Player
  - Platform
  - Ground
  - Background
  - Solid
  - 
  - 
  - 
  - 
  - 
  - 
  - 
  - 
  - 
  - 
  - 
  - 
  - 
  - 
  - 
  - 
  - 
  - 
  - 
  m_SortingLayers:
  - name: Background
    uniqueID: 588265917
    locked: 0
  - name: Middleground
    uniqueID: 1943745909
    locked: 0
  - name: Solid
    uniqueID: 953528545
    locked: 0
  - name: Default
    uniqueID: 0
    locked: 0
  - name: Player
    uniqueID: 1722170313
    locked: 0
  - name: Foreground
    uniqueID: 3813120743
    locked: 0
